{
    "demo_message": "* Demo results are truncated for brevity *",
    "request_parameters": {
      "amazon_domain": "amazon.com",
      "type": "reviews",
      "asin": "B00NGV4506"
    },
    "request_metadata": {
      "amazon_url": "https://www.amazon.com/product-reviews/B00NGV4506/"
    },
    "product": {
      "title": "Ninja BL610 Professional 72 Oz Countertop 1000-Watt Base and Total Crushing Technology for Smoothies, Ice and Frozen Fruit, Black, Blender + Pitcher",
      "link": "https://www.amazon.com/Ninja-Professional-Countertop-Technology-BL610/dp/B00NGV4506/ref=cm_cr_arp_d_product_top?ie=UTF8",
      "sub_title": {
        "text": "Ninja",
        "link": "https://www.amazon.com/stores/Ninja/page/4D837C13-1334-44EE-AD50-9586EE0F3873?ref_=ast_bln&store_ref=bl_ast_dp_brandLogo_sto"
      },
      "image": "https://m.media-amazon.com/images/I/41X325LbXdL._AC_US60_SCLZZZZZZZ__.jpg",
      "asin": "B00NGV4506",
      "attributes": [
        {
          "name": "Style",
          "value": "Generation 2 (1000 Watts)"
        }
      ]
    },
    "summary": {
      "rating": 4.7,
      "ratings_total": 51254,
      "ratings_total_filtered": 51254,
      "reviews_total_filtered": 9175,
      "reviews_total": 9175,
      "rating_breakdown": {
        "five_star": {
          "percentage": 83,
          "count": 42540
        },
        "four_star": {
          "percentage": 9,
          "count": 4612
        },
        "three_star": {
          "percentage": 3,
          "count": 1537
        },
        "two_star": {
          "percentage": 1,
          "count": 512
        },
        "one_star": {
          "percentage": 4,
          "count": 2050
        }
      }
    },
    "reviews": [
      {
        "id": "R1RHQVOTO1R5WR",
        "title": "Powerhouse of a Blender",
        "body": "The Ninja BL610 Professional 1000-Watt Blender has truly revolutionized my kitchen, and I can't help but sing its praises. This countertop blender is a powerful workhorse, equipped with a 1000-watt base and the innovative Total Crushing Technology. It's proven to be an essential kitchen companion, enabling me to create a wide variety of culinary delights with ease.  Impressive Power: With its 1000-watt motor, the Ninja BL610 is a force to be reckoned with. It effortlessly crushes and blends even the toughest ingredients, turning ice into snow and handling frozen fruits and vegetables without a hitch. This blender is a powerhouse, making it a valuable addition to any kitchen.  Total Crushing Technology: The Total Crushing Technology sets this blender apart. It quickly pulverizes ice, whole fruits, and vegetables into a smooth and consistent texture, ideal for creating creamy smoothies, soups, and sauces. The end result is a velvety, uniform blend that's restaurant-quality.  Large Capacity: The 72-ounce pitcher is spacious and allows for generous servings, making it perfect for families or entertaining guests. It eliminates the need to blend in multiple batches, saving both time and effort.  Ease of Use: The Ninja BL610 is remarkably user-friendly. It features straightforward buttons and a no-nonsense design. The blender jar and blade assembly are easy to clean, and the parts are dishwasher-safe, which simplifies the cleaning process.  Versatility: This blender is incredibly versatile. Whether you're whipping up a nutritious smoothie, creating homemade salsa, or experimenting with more complex recipes, the Ninja BL610 can handle it all. It's an excellent tool for creative cooks and those looking to diversify their culinary skills.  Build Quality: Ninja is renowned for producing durable kitchen appliances, and the BL610 is no exception. It's built to withstand regular use and maintain its high-performance standards over time.  The only con I can think of is the noise level, it's not overly loud, but it is noticeable louder than other regular Oster blenders, for example. But, since it is not an appliance that is on all the but but rather for short bursts, I don't mind.  In conclusion, the Ninja BL610 Professional 1000-Watt Blender is a kitchen marvel that has taken my cooking and meal preparation to a whole new level. It's a powerhouse, effortlessly crushing and blending ingredients with its Total Crushing Technology, and its generous capacity makes it ideal for family use. The ease of use, versatility, and durability of this blender make it a five-star addition to any kitchen. If you're in search of a blender that delivers consistent results and can handle a wide range of culinary tasks, the Ninja BL610 is an excellent choice. It's a kitchen workhorse that I wholeheartedly recommend.",
        "asin": "B00NGV4506",
        "body_html": "<span>The Ninja BL610 Professional 1000-Watt Blender has truly revolutionized my kitchen, and I can't help but sing its praises. This countertop blender is a powerful workhorse, equipped with a 1000-watt base and the innovative Total Crushing Technology. It's proven to be an essential kitchen companion, enabling me to create a wide variety of culinary delights with ease.<br><br>Impressive Power:<br>With its 1000-watt motor, the Ninja BL610 is a force to be reckoned with. It effortlessly crushes and blends even the toughest ingredients, turning ice into snow and handling frozen fruits and vegetables without a hitch. This blender is a powerhouse, making it a valuable addition to any kitchen.<br><br>Total Crushing Technology:<br>The Total Crushing Technology sets this blender apart. It quickly pulverizes ice, whole fruits, and vegetables into a smooth and consistent texture, ideal for creating creamy smoothies, soups, and sauces. The end result is a velvety, uniform blend that's restaurant-quality.<br><br>Large Capacity:<br>The 72-ounce pitcher is spacious and allows for generous servings, making it perfect for families or entertaining guests. It eliminates the need to blend in multiple batches, saving both time and effort.<br><br>Ease of Use:<br>The Ninja BL610 is remarkably user-friendly. It features straightforward buttons and a no-nonsense design. The blender jar and blade assembly are easy to clean, and the parts are dishwasher-safe, which simplifies the cleaning process.<br><br>Versatility:<br>This blender is incredibly versatile. Whether you're whipping up a nutritious smoothie, creating homemade salsa, or experimenting with more complex recipes, the Ninja BL610 can handle it all. It's an excellent tool for creative cooks and those looking to diversify their culinary skills.<br><br>Build Quality:<br>Ninja is renowned for producing durable kitchen appliances, and the BL610 is no exception. It's built to withstand regular use and maintain its high-performance standards over time.<br><br>The only con I can think of is the noise level, it's not overly loud, but it is noticeable louder than other regular Oster blenders, for example. But, since it is not an appliance that is on all the but but rather for short bursts, I don't mind.<br><br>In conclusion, the Ninja BL610 Professional 1000-Watt Blender is a kitchen marvel that has taken my cooking and meal preparation to a whole new level. It's a powerhouse, effortlessly crushing and blending ingredients with its Total Crushing Technology, and its generous capacity makes it ideal for family use. The ease of use, versatility, and durability of this blender make it a five-star addition to any kitchen. If you're in search of a blender that delivers consistent results and can handle a wide range of culinary tasks, the Ninja BL610 is an excellent choice. It's a kitchen workhorse that I wholeheartedly recommend.</span>",
        "link": "https://www.amazon.com/gp/customer-reviews/R1RHQVOTO1R5WR/ref=cm_cr_arp_d_rvw_ttl?ie=UTF8&ASIN=B00NGV4506",
        "rating": 5,
        "date": {
          "raw": "Reviewed in the United States on October 22, 2023",
          "utc": "2023-10-22T00:00:00.000Z"
        },
        "profile": {
          "name": "DANIEL A LIZARRAGA V",
          "link": "https://www.amazon.com/gp/profile/amzn1.account.AEVWNV2FNQTY2D2FOC65EFXFOJYA/ref=cm_cr_arp_d_gw_btm?ie=UTF8",
          "id": "AEVWNV2FNQTY2D2FOC65EFXFOJYA",
          "image": "https://images-na.ssl-images-amazon.com/images/S/amazon-avatars-global/66ae698a-5774-413c-9e6f-c381afc49376._CR0,0,375,375_SX48_.jpg"
        },
        "vine_program": false,
        "verified_purchase": true,
        "attributes": [
          {
            "name": "Style",
            "value": "Generation 2 (1000 Watts)"
          }
        ],
        "attributes_flat": "Style: Generation 2 (1000 Watts)",
        "helpful_votes": 73,
        "review_country": "us",
        "is_global_review": false,
        "position": 1
      },
      {
        "id": "R3D5GOBH06WWEC",
        "title": "Works great!",
        "body": "This blender is a really good value for the money! It's really easy to assemble and blends things pretty well! It's also pretty easy to clean (just be careful with the blades)",
        "asin": "B00NGV4506",
        "body_html": "<span>This blender is a really good value for the money! It's really easy to assemble and blends things pretty well!<br>It's also pretty easy to clean (just be careful with the blades)</span>",
        "link": "https://www.amazon.com/gp/customer-reviews/R3D5GOBH06WWEC/ref=cm_cr_arp_d_rvw_ttl?ie=UTF8&ASIN=B00NGV4506",
        "rating": 5,
        "date": {
          "raw": "Reviewed in the United States on June 9, 2024",
          "utc": "2024-06-09T00:00:00.000Z"
        },
        "profile": {
          "name": "Joao",
          "link": "https://www.amazon.com/gp/profile/amzn1.account.AH5XNMBL2B6VWHEJKLSBVP6MMJHA/ref=cm_cr_arp_d_gw_btm?ie=UTF8",
          "id": "AH5XNMBL2B6VWHEJKLSBVP6MMJHA"
        },
        "vine_program": false,
        "verified_purchase": true,
        "attributes": [
          {
            "name": "Style",
            "value": "Generation 2 (1000 Watts)"
          }
        ],
        "attributes_flat": "Style: Generation 2 (1000 Watts)",
        "review_country": "us",
        "is_global_review": false,
        "position": 2
      },
      {
        "id": "R208JQPDYB3JSY",
        "title": "Blend Like a Ninja",
        "body": "Picture this: you're on a quest for the perfect smoothie, but your old blender is just not up to the task. Enter the Ninja BL610 Professional 72 Oz Countertop Blender, a true kitchen warrior armed with a 1000-watt base and Total Crushing Technology. As a smoothie enthusiast, I embarked on a blending adventure with the Ninja BL610, and boy, was it a game-changer! In this review, I'll share my personal experiences and unveil why this blender deserves a resounding 5 out of 5 stars.  First impressions matter, and the Ninja BL610 didn't disappoint. Its sleek, black design and sturdy construction gave an immediate impression of quality. With dimensions of 9.5 in L x 7.5 in W x 17 in H, it didn't take up much space on my countertop either.  But let's get down to business—the power. This blender's 1000-watt base is like a jet engine for your ingredients. Whether it's crushing ice, pulverizing frozen fruit, or blending tough greens, the Ninja BL610 handles it all effortlessly. I couldn't help but marvel at the speed and efficiency with which it transformed my ingredients into velvety smooth concoctions.  Now, let's talk about the real reason why I fell head over heels for the Ninja BL610—the smoothies! As a self-proclaimed smoothie aficionado, I've tried countless blenders, but this one takes the crown. Its Total Crushing Technology ensures every sip is a silky delight.  The 72 oz pitcher is more than generous, allowing me to whip up large batches of smoothies for the whole family or prepare ahead for the week. The pitcher's design and pour spout make serving a breeze, and its dishwasher-safe feature simplifies cleanup—a huge plus in my book.  But what truly amazed me was the Ninja BL610's ability to handle any ingredient I threw its way. From frozen berries to fibrous kale, it blitzed through everything effortlessly. I've never encountered a blender with such consistent and smooth results.  Now, let me share a funny mishap that occurred during my blending adventures with the Ninja BL610. One day, while in a hurry, I accidentally overloaded the pitcher with an excessive amount of ice. As soon as I turned it on, the blender let out a thunderous roar, and the lid popped off! Ice shards flew everywhere, creating a hilarious icy explosion in my kitchen. Lesson learned: always follow the recommended guidelines for ingredients.  Despite the occasional misadventure, the Ninja BL610's power and versatility never ceased to impress. From delicious smoothies to creamy soups and decadent desserts, this blender was my trusty sidekick in the kitchen.  In conclusion, the Ninja BL610 Professional 72 Oz Countertop Blender is a force to be reckoned with. Its power, durability, and ability to produce consistently smooth results make it a must-have kitchen appliance. Whether you're a smoothie enthusiast, a culinary adventurer, or simply someone who appreciates the joy of effortless blending, this blender is a game-changer. Even with a few amusing mishaps along the way, the Ninja BL610 earns a resounding 5 out of 5 stars in my book. Say goodbye to chunky smoothies and hello to blend perfection with the Ninja BL610!",
        "asin": "B00NGV4506",
        "body_html": "<span>Picture this: you're on a quest for the perfect smoothie, but your old blender is just not up to the task. Enter the Ninja BL610 Professional 72 Oz Countertop Blender, a true kitchen warrior armed with a 1000-watt base and Total Crushing Technology. As a smoothie enthusiast, I embarked on a blending adventure with the Ninja BL610, and boy, was it a game-changer! In this review, I'll share my personal experiences and unveil why this blender deserves a resounding 5 out of 5 stars.<br><br>First impressions matter, and the Ninja BL610 didn't disappoint. Its sleek, black design and sturdy construction gave an immediate impression of quality. With dimensions of 9.5 in L x 7.5 in W x 17 in H, it didn't take up much space on my countertop either.<br><br>But let's get down to business—the power. This blender's 1000-watt base is like a jet engine for your ingredients. Whether it's crushing ice, pulverizing frozen fruit, or blending tough greens, the Ninja BL610 handles it all effortlessly. I couldn't help but marvel at the speed and efficiency with which it transformed my ingredients into velvety smooth concoctions.<br><br>Now, let's talk about the real reason why I fell head over heels for the Ninja BL610—the smoothies! As a self-proclaimed smoothie aficionado, I've tried countless blenders, but this one takes the crown. Its Total Crushing Technology ensures every sip is a silky delight.<br><br>The 72 oz pitcher is more than generous, allowing me to whip up large batches of smoothies for the whole family or prepare ahead for the week. The pitcher's design and pour spout make serving a breeze, and its dishwasher-safe feature simplifies cleanup—a huge plus in my book.<br><br>But what truly amazed me was the Ninja BL610's ability to handle any ingredient I threw its way. From frozen berries to fibrous kale, it blitzed through everything effortlessly. I've never encountered a blender with such consistent and smooth results.<br><br>Now, let me share a funny mishap that occurred during my blending adventures with the Ninja BL610. One day, while in a hurry, I accidentally overloaded the pitcher with an excessive amount of ice. As soon as I turned it on, the blender let out a thunderous roar, and the lid popped off! Ice shards flew everywhere, creating a hilarious icy explosion in my kitchen. Lesson learned: always follow the recommended guidelines for ingredients.<br><br>Despite the occasional misadventure, the Ninja BL610's power and versatility never ceased to impress. From delicious smoothies to creamy soups and decadent desserts, this blender was my trusty sidekick in the kitchen.<br><br>In conclusion, the Ninja BL610 Professional 72 Oz Countertop Blender is a force to be reckoned with. Its power, durability, and ability to produce consistently smooth results make it a must-have kitchen appliance. Whether you're a smoothie enthusiast, a culinary adventurer, or simply someone who appreciates the joy of effortless blending, this blender is a game-changer. Even with a few amusing mishaps along the way, the Ninja BL610 earns a resounding 5 out of 5 stars in my book. Say goodbye to chunky smoothies and hello to blend perfection with the Ninja BL610!</span>",
        "link": "https://www.amazon.com/gp/customer-reviews/R208JQPDYB3JSY/ref=cm_cr_arp_d_rvw_ttl?ie=UTF8&ASIN=B00NGV4506",
        "rating": 5,
        "date": {
          "raw": "Reviewed in the United States on May 22, 2023",
          "utc": "2023-05-22T00:00:00.000Z"
        },
        "profile": {
          "name": "Fadi Shamaan",
          "link": "https://www.amazon.com/gp/profile/amzn1.account.AH2UZ52SQ4HSIYYUEBYBY6R76JEA/ref=cm_cr_arp_d_gw_btm?ie=UTF8",
          "id": "AH2UZ52SQ4HSIYYUEBYBY6R76JEA",
          "image": "https://images-na.ssl-images-amazon.com/images/S/amazon-avatars-global/bafaea8d-cdda-4301-b6c5-7f0ff8818a12._CR0,0,400,400_SX48_.jpg"
        },
        "vine_program": false,
        "verified_purchase": true,
        "attributes": [
          {
            "name": "Style",
            "value": "Generation 2 (1000 Watts)"
          }
        ],
        "attributes_flat": "Style: Generation 2 (1000 Watts)",
        "helpful_votes": 130,
        "review_country": "us",
        "is_global_review": false,
        "position": 3
      },
      {
        "id": "R2H207DB26MHTK",
        "title": "Powerful and Quiet",
        "body": "I use my new Ninja blender every day to make healthy smoothies. The extra large capacity is a plus and it is easy to clean. The 3 levels of super sharp blades makes quick work of frozen fruit and vegetables. It has plenty of power and the noise factor is much less than my previous blender. This is a quality blender for a fraction of the price of other products on the market.",
        "asin": "B00NGV4506",
        "body_html": "<span>I use my new Ninja blender every day to make healthy smoothies. The extra large capacity is a plus and it is easy to clean. The 3 levels of super sharp blades makes quick work of frozen fruit and vegetables. It has plenty of power and the noise factor is much less than my previous blender. This is a quality blender for a fraction of the price of other products on the market.</span>",
        "link": "https://www.amazon.com/gp/customer-reviews/R2H207DB26MHTK/ref=cm_cr_arp_d_rvw_ttl?ie=UTF8&ASIN=B00NGV4506",
        "rating": 5,
        "date": {
          "raw": "Reviewed in the United States on June 7, 2024",
          "utc": "2024-06-07T00:00:00.000Z"
        },
        "profile": {
          "name": "Chris K",
          "link": "https://www.amazon.com/gp/profile/amzn1.account.AE6BZL3MGOJXODUTYY7HT74D774Q/ref=cm_cr_arp_d_gw_btm?ie=UTF8",
          "id": "AE6BZL3MGOJXODUTYY7HT74D774Q"
        },
        "vine_program": false,
        "verified_purchase": true,
        "attributes": [
          {
            "name": "Style",
            "value": "Generation 2 (1000 Watts)"
          }
        ],
        "attributes_flat": "Style: Generation 2 (1000 Watts)",
        "helpful_votes": 2,
        "review_country": "us",
        "is_global_review": false,
        "position": 4
      }
    ],
    "pagination": {
      "ratings_total_filtered": 51254,
      "reviews_total_filtered": 9175,
      "reviews_total": 9175,
      "total_results": 9175,
      "total_pages": 918,
      "message": "There are a high number of reviews for this product. It is likely Amazon will not allow pagination through all of the review pages. Please check the API response for presence of the 'reviews' array before continuing to the next page.",
      "current_page": 1,
      "start": 1,
      "end": 10
    }
  }